…
shodan_protocols()
#> # A tibble: 169 x 2
#>    protocol             description                                                                     
#>    <chr>                <chr>                                                                           
#>  1 amqp                 Grab information from an AMQP service                                           
#>  2 andromouse           Checks whether the device is running the remote mouse AndroMouse service.       
#>  3 apple-airport-admin  Check whether the device is an Apple AirPort administrative interface.          
#>  4 ard                  Query the Apple Remote Desktop service for information about the device         
#>  5 automated-tank-gauge Get the tank inventory for a gasoline station.                                  
#>  6 bacnet               Gets various information from a BACnet device.                                  
#>  7 beanstalk            Get general information about the Beanstalk daemon                              
#>  8 bgp                  Checks whether the device is running BGP.                                       
#>  9 bitcoin              Grabs information about a Bitcoin daemon, including any devices connected to it.
#> 10 bittorrent-tracker   Check whether there is a BitTorrent tracker running.                            
#> # ... with 159 more rows
…
